Demonstrating the Power of Non-Euclidean Embedding with Simulations
…
For the purposes of testing, weve added stabilizing selection to one of the mutation types (m2). Later in this vignette we will use some of the advanced features of slimr to add custom stabilizing selection to each mutation type which is subpopulation specific. But first lets check this script works.

test <- slim_run(script_1)

## 
## 
## Simulation finished with exit status: 0

test_muts<- slim_outputFull_extract(test$output_data, "mutations")
test_muts

## # A tibble: 140,361 x 11
##    generation    id unique_id mut_type chrome_pos selection dominance subpop
##         <int> <int>     <int> <chr>         <int>     <dbl>     <dbl> <chr> 
##  1          1     0         0 m1             3324     0           0.5 p1    
##  2          1     1         1 m1             7637     0           0.5 p1    
##  3          1     2         2 m1             2108     0           0.5 p1    
##  4          1     3         3 m4            10079     0.100       0.5 p1    
##  5          1     4         4 m3             4596     0.100       0.5 p1    
##  6          1     5         5 m1             6421     0           0.5 p1    
##  7          1     6         6 m1             9095     0           0.5 p1    
##  8          1     7         7 m1              330     0           0.5 p1    
##  9          1     8         8 m1             1037     0           0.5 p1    
## 10          1     9         9 m1             8665     0           0.5 p1    
## # ... with 140,351 more rows, and 3 more variables: first_gen <int>,
## #   prevalence <int>, nucleotide <chr>
…
